…
2. How many genera and species are represented in the data? What are the total number of observations? Which species is most/ least frequently sampled in the study?


```r
deserts %>% 
  count(genus, sort =T)
```

```
## # A tibble: 26 × 2
##    genus                n
##    <chr>            <int>
##  1 Dipodomys        16167
##  2 Chaetodipus       6029
##  3 Onychomys         3267
##  4 Reithrodontomys   2694
##  5 Peromyscus        2234
##  6 Perognathus       1629
##  7 Neotoma           1252
##  8 Ammospermophilus   437
##  9 Amphispiza         303
## 10 Spermophilus       249
## # … with 16 more rows
```
26 genera and 40 species, 

```r
deserts %>% 
  count(species, sort =T)
```

```
## # A tibble: 40 × 2
##    species          n
##    <chr>        <int>
##  1 merriami     10596
##  2 penicillatus  3123
##  3 ordii         3027
##  4 baileyi       2891
##  5 megalotis     2609
##  6 spectabilis   2504
##  7 torridus      2249
##  8 flavus        1597
##  9 eremicus      1299
## 10 albigula      1252
## # … with 30 more rows
```
…
```r
deserts %>% 
  group_by(species) %>% 
  filter(!is.na(weight)) %>% 
  summarize(avg_weight = mean(weight,na.rm =T)) %>% 
  arrange(desc(avg_weight))
```

```
## # A tibble: 22 × 2
##    species      avg_weight
##    <chr>             <dbl>
##  1 albigula          159. 
##  2 spectabilis       120. 
##  3 spilosoma          93.5
##  4 hispidus           65.6
##  5 fulviventer        58.9
##  6 ochrognathus       55.4
##  7 ordii              48.9
##  8 merriami           43.2
##  9 baileyi            31.7
## 10 leucogaster        31.6
## # … with 12 more rows
```

```r
deserts_albigula <- deserts %>% 
  filter(species == "albigula") %>% 
  mutate(ratio = weight/hindfoot_length)
deserts_albigula
```

```
## # A tibble: 1,252 × 14
##    record…¹ month   day  year plot_id speci…² sex   hindf…³ weight genus species
##       <dbl> <dbl> <dbl> <dbl>   <dbl> <chr>   <chr>   <dbl>  <dbl> <chr> <chr>  
##  1        1     7    16  1977       2 NL      M          32     NA Neot… albigu…
##  2        2     7    16  1977       3 NL      M          33     NA Neot… albigu…
##  3       22     7    17  1977      15 NL      F          31     NA Neot… albigu…
##  4       38     7    17  1977      17 NL      M          33     NA Neot… albigu…
##  5       72     8    19  1977       2 NL      M          31     NA Neot… albigu…
##  6      106     8    20  1977      12 NL      <NA>       NA     NA Neot… albigu…
##  7      107     8    20  1977      18 NL      <NA>       NA     NA Neot… albigu…
##  8      121     8    21  1977      15 NL      <NA>       NA     NA Neot… albigu…
##  9      171     9    11  1977      12 NL      <NA>       NA     NA Neot… albigu…
## 10      194     9    12  1977      11 NL      <NA>       NA     NA Neot… albigu…
## # … with 1,242 more rows, 3 more variables: taxa <chr>, plot_type <chr>,
## #   ratio <dbl>, and abbreviated variable names ¹​record_id, ²​species_id,
## #   ³​hindfoot_length
```
…
```r
deserts_spectabilis <-deserts %>% 
  filter(species == "spectabilis") %>% 
  mutate(ratio = weight/hindfoot_length) 
deserts_spectabilis
```

```
## # A tibble: 2,504 × 14
##    record…¹ month   day  year plot_id speci…² sex   hindf…³ weight genus species
##       <dbl> <dbl> <dbl> <dbl>   <dbl> <chr>   <chr>   <dbl>  <dbl> <chr> <chr>  
##  1       11     7    16  1977       5 DS      F          53     NA Dipo… specta…
##  2       17     7    16  1977       3 DS      F          48     NA Dipo… specta…
##  3       20     7    17  1977      11 DS      F          48     NA Dipo… specta…
##  4       30     7    17  1977      10 DS      F          52     NA Dipo… specta…
##  5       42     7    18  1977      18 DS      F          46     NA Dipo… specta…
##  6       58     7    18  1977      12 DS      M          45     NA Dipo… specta…
##  7       73     8    19  1977       3 DS      F          44     NA Dipo… specta…
##  8       76     8    19  1977       9 DS      F          47     NA Dipo… specta…
##  9       80     8    19  1977       1 DS      M          48     NA Dipo… specta…
## 10       91     8    20  1977      11 DS      F          50     NA Dipo… specta…
## # … with 2,494 more rows, 3 more variables: taxa <chr>, plot_type <chr>,
## #   ratio <dbl>, and abbreviated variable names ¹​record_id, ²​species_id,
## #   ³​hindfoot_length
```
…
