…
```r
hotspring_microbiome <- hotspring_microbiome %>% 
  relocate(query_name, name, average_abund, average_containment_ani) %>% 
  arrange(desc(average_abund))
hotspring_microbiome
```

```
## # A tibble: 22 × 32
##    query…¹ name  avera…² avera…³ inter…⁴ f_ori…⁵ f_match f_uni…⁶ f_uni…⁷ media…⁸
##    <chr>   <chr>   <dbl>   <dbl>   <dbl>   <dbl>   <dbl>   <dbl>   <dbl>   <dbl>
##  1 SRR885… GCF_…   57.4    0.856  201000 6.28e-4  0.0864 6.22e-4 1.51e-2      60
##  2 SRR885… GCA_…   28.3    0.861  232000 7.25e-4  0.0690 4.81e-4 5.77e-3      29
##  3 SRR885… GCF_…   22.9    0.863  252000 7.88e-4  0.0900 6.41e-4 6.21e-3       9
##  4 SRR885… GCF_…   15.2    0.856  218000 6.81e-4  0.0507 4.47e-4 2.87e-3       2
##  5 SRR885… GCF_…   14.7    0.824   64000 2.00e-4  0.0210 1.66e-4 1.03e-3       5
##  6 SRR885… GCF_…   13.7    0.844  143000 4.47e-4  0.0249 2.13e-4 1.24e-3       3
##  7 SRR885… GCA_…    6.61   0.888  602000 1.88e-3  0.273  1.88e-3 5.27e-3       1
##  8 SRR885… GCA_…    3.16   0.886  622000 1.94e-3  0.233  1.94e-3 2.60e-3       3
##  9 SRR885… GCA_…    2.60   0.865  352000 1.10e-3  0.0932 1.10e-3 1.21e-3       2
## 10 SRR885… GCA_…    2.5    0.837  119000 3.72e-4  0.0270 2.69e-4 2.85e-4       2
## # … with 12 more rows, 22 more variables: std_abund <dbl>, filename <chr>,
## #   md5 <chr>, f_match_orig <dbl>, unique_intersect_bp <dbl>,
## #   gather_result_rank <dbl>, remaining_bp <dbl>, query_filename <chr>,
## #   query_md5 <chr>, query_bp <dbl>, ksize <dbl>, moltype <chr>, scaled <dbl>,
## #   query_n_hashes <dbl>, query_abundance <lgl>, query_containment_ani <dbl>,
## #   match_containment_ani <dbl>, max_containment_ani <dbl>,
## #   potential_false_negative <lgl>, n_unique_weighted_found <dbl>, …
```
…
