…
```r
naniar::miss_var_summary(surgery)
```

```
## # A tibble: 25 × 3
##    variable          n_miss pct_miss
##    <chr>              <int>    <dbl>
##  1 bmi                 3290 10.3    
##  2 race                 480  1.50   
##  3 asa_status             8  0.0250 
##  4 gender                 3  0.00937
##  5 age                    2  0.00625
##  6 ahrq_ccs               0  0      
##  7 baseline_cancer        0  0      
##  8 baseline_cvd           0  0      
##  9 baseline_dementia      0  0      
## 10 baseline_diabetes      0  0      
## # … with 15 more rows
```
…
```r
surgery %>% 
  group_by(asa_status) 
```

```
## # A tibble: 32,001 × 25
## # Groups:   asa_status [4]
##    ahrq_ccs   age gender race      asa_s…¹   bmi basel…² basel…³ basel…⁴ basel…⁵
##    <chr>    <dbl> <chr>  <chr>     <chr>   <dbl> <chr>   <chr>   <chr>   <chr>  
##  1 <Other>   67.8 M      Caucasian I-II     28.0 No      Yes     No      No     
##  2 <Other>   39.5 F      Caucasian I-II     37.8 No      Yes     No      No     
##  3 <Other>   56.5 F      Caucasian I-II     19.6 No      No      No      No     
##  4 <Other>   71   M      Caucasian III      32.2 No      Yes     No      No     
##  5 <Other>   56.3 M      African … I-II     24.3 Yes     No      No      No     
##  6 <Other>   57.7 F      Caucasian I-II     40.3 No      Yes     No      No     
##  7 <Other>   56.6 M      Other     IV-VI    64.6 No      Yes     No      Yes    
##  8 <Other>   64.2 F      Caucasian III      43.2 No      Yes     No      No     
##  9 <Other>   66.2 M      Caucasian III      28.0 No      Yes     No      No     
## 10 <Other>   20.1 F      Caucasian I-II     27.4 Yes     No      No      No     
## # … with 31,991 more rows, 15 more variables: baseline_digestive <chr>,
## #   baseline_osteoart <chr>, baseline_psych <chr>, baseline_pulmonary <chr>,
## #   baseline_charlson <dbl>, mortality_rsi <dbl>, complication_rsi <dbl>,
## #   ccsmort30rate <dbl>, ccscomplicationrate <dbl>, hour <dbl>, dow <chr>,
## #   month <chr>, moonphase <chr>, mort30 <chr>, complication <chr>, and
## #   abbreviated variable names ¹​asa_status, ²​baseline_cancer, ³​baseline_cvd,
## #   ⁴​baseline_dementia, ⁵​baseline_diabetes
```
…
The variable `ccsmort30rate` is a measure of the overall 30-day mortality rate associated with each type of operation. The variable `ccscomplicationrate` is a measure of the 30-day in-hospital complication rate. The variable `ahrq_ccs` lists each type of operation.  

7. (4 points) What are the 5 procedures associated with highest risk of 30-day mortality AND how do they compare with the 5 procedures with highest risk of complication? (hint: no need for a plot here)

```r
surgery%>% 
  select(ahrq_ccs, ccsmort30rate) 
```

```
## # A tibble: 32,001 × 2
##    ahrq_ccs ccsmort30rate
##    <chr>            <dbl>
##  1 <Other>        0.00425
##  2 <Other>        0.00425
##  3 <Other>        0.00425
##  4 <Other>        0.00425
##  5 <Other>        0.00425
##  6 <Other>        0.00425
##  7 <Other>        0.00425
##  8 <Other>        0.00425
##  9 <Other>        0.00425
## 10 <Other>        0.00425
## # … with 31,991 more rows
```
…
