…
fisheries_tidy$catch <- as.numeric(fisheries_tidy$catch)
```

3. How many countries are represented in the data? Provide a count and list their names.

```r
fisheries_tidy %>% 
  count(country)
```

```
## # A tibble: 203 × 2
##    country                 n
##    <fct>               <int>
##  1 Albania               934
##  2 Algeria              1561
##  3 American Samoa        556
##  4 Angola               2119
##  5 Anguilla              129
##  6 Antigua and Barbuda   356
##  7 Argentina            3403
##  8 Aruba                 172
##  9 Australia            8183
## 10 Bahamas               423
## # … with 193 more rows
```
…
```r
fisheries_tidy %>% 
  select(country, isscaap_taxonomic_group, asfis_species_name, asfis_species_number, year, catch) 
```

```
## # A tibble: 376,771 × 6
##    country isscaap_taxonomic_group asfis_species_name asfis_specie…¹  year catch
##    <fct>   <chr>                   <chr>              <fct>          <dbl> <dbl>
##  1 Albania Sharks, rays, chimaeras Squatinidae        10903XXXXX      1995    NA
##  2 Albania Sharks, rays, chimaeras Squatinidae        10903XXXXX      1996    53
##  3 Albania Sharks, rays, chimaeras Squatinidae        10903XXXXX      1997    20
##  4 Albania Sharks, rays, chimaeras Squatinidae        10903XXXXX      1998    31
##  5 Albania Sharks, rays, chimaeras Squatinidae        10903XXXXX      1999    30
##  6 Albania Sharks, rays, chimaeras Squatinidae        10903XXXXX      2000    30
##  7 Albania Sharks, rays, chimaeras Squatinidae        10903XXXXX      2001    16
##  8 Albania Sharks, rays, chimaeras Squatinidae        10903XXXXX      2002    79
##  9 Albania Sharks, rays, chimaeras Squatinidae        10903XXXXX      2003     1
## 10 Albania Sharks, rays, chimaeras Squatinidae        10903XXXXX      2004     4
## # … with 376,761 more rows, and abbreviated variable name ¹​asfis_species_number
```
…
6. Which country had the largest overall catch in the year 2000?

```r
fisheries_tidy %>% 
  filter(year=="2000") %>% 
  group_by(country) %>% 
  summarize(catch_total=sum(catch,na.rm=T)) %>% 
  arrange(desc(catch_total))
```

```
## # A tibble: 193 × 2
##    country                  catch_total
##    <fct>                          <dbl>
##  1 China                          25899
##  2 Russian Federation             12181
##  3 United States of America       11762
##  4 Japan                           8510
##  5 Indonesia                       8341
##  6 Peru                            7443
##  7 Chile                           6906
##  8 India                           6351
##  9 Thailand                        6243
## 10 Korea, Republic of              6124
## # … with 183 more rows
```

7. Which country caught the most sardines (_Sardina pilchardus_) between the years 1990-2000?

```r
fisheries_tidy %>% 
  filter(between(year, 1990, 2000)) %>% 
  group_by(country) %>% 
  filter(asfis_species_name == "Sardina pilchardus") %>% 
  summarize(catch_total=sum(catch,na.rm =T)) %>% 
  arrange(desc(catch_total))
```

```
## # A tibble: 37 × 2
##    country               catch_total
##    <fct>                       <dbl>
##  1 Morocco                      7470
##  2 Spain                        3507
##  3 Russian Federation           1639
##  4 Ukraine                      1030
##  5 France                        966
##  6 Portugal                      818
##  7 Greece                        528
##  8 Italy                         507
##  9 Serbia and Montenegro         478
## 10 Denmark                       477
## # … with 27 more rows
```
…
9. Which species had the highest catch total between 2008-2012? (hint: Osteichthyes is not a species)

```r
fisheries_tidy %>% 
  group_by(asfis_species_name) %>% 
  filter(between(year,2008,2012), asfis_species_name != "Osteichthyes") %>% 
  summarize(catch_total = sum(catch,na.rm =T)) %>% 
  arrange(desc(catch_total))
```

```
## # A tibble: 1,471 × 2
##    asfis_species_name    catch_total
##    <chr>                       <dbl>
##  1 Theragra chalcogramma       41075
##  2 Engraulis ringens           35523
##  3 Katsuwonus pelamis          32153
##  4 Trichiurus lepturus         30400
##  5 Clupea harengus             28527
##  6 Thunnus albacares           20119
##  7 Scomber japonicus           14723
##  8 Gadus morhua                13253
##  9 Thunnus alalunga            12019
## 10 Natantia                    11984
## # … with 1,461 more rows
```
…
```r
fisheries_tidy %>% 
  group_by(country) %>% 
  select(common_name, year, catch) %>% 
  filter(between(year, 2000,2010)) %>% 
  arrange(desc(catch))
```

```
## Adding missing grouping variables: `country`
```

```
## # A tibble: 106,268 × 4
## # Groups:   country [196]
##    country                  common_name                     year catch
##    <fct>                    <chr>                          <dbl> <dbl>
##  1 Chile                    Chilean jack mackerel           2006  9941
##  2 Chile                    Chilean jack mackerel           2001  9933
##  3 United States of America Alaska pollock(=Walleye poll.)  2004  9928
##  4 China                    Marine fishes nei               2002  9899
##  5 Viet Nam                 Marine fishes nei               2010  9806
##  6 Peru                     Anchoveta(=Peruvian anchovy)    2007  9802
##  7 Myanmar                  Marine fishes nei               2004  9640
##  8 Chile                    Anchoveta(=Peruvian anchovy)    2004  9571
##  9 China                    Marine crustaceans nei          2001  9209
## 10 Viet Nam                 Marine fishes nei               2003  9157
## # … with 106,258 more rows
```
…
