…
**7. Which countries have had the largest population growth since 1952?**

```r
gapminder %>% 
  select(country, year, pop) %>% 
  filter(year == 1952|year ==2007) %>% 
  pivot_wider(names_from = year, names_prefix = "yr_", values_from = pop) %>% 
  mutate(growth = yr_2007-yr_1952) %>% 
  arrange(desc(growth))
```

```
## # A tibble: 142 × 4
##    country         yr_1952    yr_2007    growth
##    <fct>             <int>      <int>     <int>
##  1 China         556263527 1318683096 762419569
##  2 India         372000000 1110396331 738396331
##  3 United States 157553000  301139947 143586947
##  4 Indonesia      82052000  223547000 141495000
##  5 Brazil         56602560  190010647 133408087
##  6 Pakistan       41346560  169270617 127924057
##  7 Bangladesh     46886859  150448339 103561480
##  8 Nigeria        33119096  135031164 101912068
##  9 Mexico         30144317  108700891  78556574
## 10 Philippines    22438691   91077287  68638596
## # … with 132 more rows
```
…
```r
gapminder %>% 
  select(country, year, pop) %>% 
  filter(year == 1952|year ==2007) %>% 
  pivot_wider(names_from = year, names_prefix = "yr_", values_from = pop) %>% 
  mutate(growth = yr_2007-yr_1952) %>% 
  arrange(desc(growth))
```

```
## # A tibble: 142 × 4
##    country         yr_1952    yr_2007    growth
##    <fct>             <int>      <int>     <int>
##  1 China         556263527 1318683096 762419569
##  2 India         372000000 1110396331 738396331
##  3 United States 157553000  301139947 143586947
##  4 Indonesia      82052000  223547000 141495000
##  5 Brazil         56602560  190010647 133408087
##  6 Pakistan       41346560  169270617 127924057
##  7 Bangladesh     46886859  150448339 103561480
##  8 Nigeria        33119096  135031164 101912068
##  9 Mexico         30144317  108700891  78556574
## 10 Philippines    22438691   91077287  68638596
## # … with 132 more rows
```
…
