…
```
## Adding missing grouping variables: `city`
```

```r
colleges_cost %>% 
  arrange(desc(average_cost))
```

```
## # A tibble: 161 × 3
##    city                average_cost n_city
##    <chr>                      <dbl>  <int>
##  1 Claremont                  66498      1
##  2 Malibu                     66152      1
##  3 Valencia                   64686      1
##  4 Orange                     64501      1
##  5 Redlands                   61542      1
##  6 Moraga                     61095      1
##  7 Atherton                   56035      1
##  8 Thousand Oaks              54373      1
##  9 Rancho Palos Verdes        50758      1
## 10 La Verne                   50603      1
## # … with 151 more rows
```
…
