…
2. Notice that we have some neutral superheros! Who are they?

```r
superhero_info %>% 
  select(alignment, name) %>% 
  filter(alignment == "neutral")
```

```
## # A tibble: 24 × 2
##    alignment name        
##    <chr>     <chr>       
##  1 neutral   Bizarro     
##  2 neutral   Black Flash 
##  3 neutral   Captain Cold
##  4 neutral   Copycat     
##  5 neutral   Deadpool    
##  6 neutral   Deathstroke 
##  7 neutral   Etrigan     
##  8 neutral   Galactus    
##  9 neutral   Gladiator   
## 10 neutral   Indigo      
## # … with 14 more rows
```

## `superhero_info`
3. Let's say we are only interested in the variables name, alignment, and "race". How would you isolate these variables from `superhero_info`?

```r
superhero_info %>% 
  select(name, alignment, race)
```

```
## # A tibble: 734 × 3
##    name          alignment race             
##    <chr>         <chr>     <chr>            
##  1 A-Bomb        good      Human            
##  2 Abe Sapien    good      Icthyo Sapien    
##  3 Abin Sur      good      Ungaran          
##  4 Abomination   bad       Human / Radiation
##  5 Abraxas       bad       Cosmic Entity    
##  6 Absorbing Man bad       Human            
##  7 Adam Monroe   good      <NA>             
##  8 Adam Strange  good      Human            
##  9 Agent 13      good      <NA>             
## 10 Agent Bob     good      Human            
## # … with 724 more rows
```

## Not Human
4. List all of the superheros that are not human.

```r
superhero_info %>% 
  select(name, race) %>% 
  filter(race != "Human")
```

```
## # A tibble: 222 × 2
##    name         race             
##    <chr>        <chr>            
##  1 Abe Sapien   Icthyo Sapien    
##  2 Abin Sur     Ungaran          
##  3 Abomination  Human / Radiation
##  4 Abraxas      Cosmic Entity    
##  5 Ajax         Cyborg           
##  6 Alien        Xenomorph XX121  
##  7 Amazo        Android          
##  8 Angel        Vampire          
##  9 Angel Dust   Mutant           
## 10 Anti-Monitor God / Eternal    
## # … with 212 more rows
```

## Good and Evil
5. Let's make two different data frames, one focused on the "good guys" and another focused on the "bad guys".

```r
good_guys <-
  superhero_info %>% 
  filter(alignment == "good")
good_guys
```

```
## # A tibble: 496 × 10
##    name       gender eye_c…¹ race  hair_…² height publi…³ skin_…⁴ align…⁵ weight
##    <chr>      <chr>  <chr>   <chr> <chr>    <dbl> <chr>   <chr>   <chr>    <dbl>
##  1 A-Bomb     Male   yellow  Human No Hair    203 Marvel… <NA>    good       441
##  2 Abe Sapien Male   blue    Icth… No Hair    191 Dark H… blue    good        65
##  3 Abin Sur   Male   blue    Unga… No Hair    185 DC Com… red     good        90
##  4 Adam Monr… Male   blue    <NA>  Blond       NA NBC - … <NA>    good        NA
##  5 Adam Stra… Male   blue    Human Blond      185 DC Com… <NA>    good        88
##  6 Agent 13   Female blue    <NA>  Blond      173 Marvel… <NA>    good        61
##  7 Agent Bob  Male   brown   Human Brown      178 Marvel… <NA>    good        81
##  8 Agent Zero Male   <NA>    <NA>  <NA>       191 Marvel… <NA>    good       104
##  9 Alan Scott Male   blue    <NA>  Blond      180 DC Com… <NA>    good        90
## 10 Alex Wool… Male   <NA>    <NA>  <NA>        NA NBC - … <NA>    good        NA
## # … with 486 more rows, and abbreviated variable names ¹​eye_color, ²​hair_color,
## #   ³​publisher, ⁴​skin_color, ⁵​alignment
```



```r
bad_guys <- 
  superhero_info %>% 
  filter(alignment == "bad")
bad_guys
```

```
## # A tibble: 207 × 10
##    name       gender eye_c…¹ race  hair_…² height publi…³ skin_…⁴ align…⁵ weight
##    <chr>      <chr>  <chr>   <chr> <chr>    <dbl> <chr>   <chr>   <chr>    <dbl>
##  1 Abominati… Male   green   Huma… No Hair    203 Marvel… <NA>    bad        441
##  2 Abraxas    Male   blue    Cosm… Black       NA Marvel… <NA>    bad         NA
##  3 Absorbing… Male   blue    Human No Hair    193 Marvel… <NA>    bad        122
##  4 Air-Walker Male   blue    <NA>  White      188 Marvel… <NA>    bad        108
##  5 Ajax       Male   brown   Cybo… Black      193 Marvel… <NA>    bad         90
##  6 Alex Merc… Male   <NA>    Human <NA>        NA Wildst… <NA>    bad         NA
##  7 Alien      Male   <NA>    Xeno… No Hair    244 Dark H… black   bad        169
##  8 Amazo      Male   red     Andr… <NA>       257 DC Com… <NA>    bad        173
##  9 Ammo       Male   brown   Human Black      188 Marvel… <NA>    bad        101
## 10 Angela     Female <NA>    <NA>  <NA>        NA Image … <NA>    bad         NA
## # … with 197 more rows, and abbreviated variable names ¹​eye_color, ²​hair_color,
## #   ³​publisher, ⁴​skin_color, ⁵​alignment
```
…
9. OK, so are there more good guys or bad guys that are bald (personal interest)?

```r
good_guys %>% 
  select(name,hair_color) %>% 
  filter(hair_color == "No Hair")
```

```
## # A tibble: 37 × 2
##    name            hair_color
##    <chr>           <chr>     
##  1 A-Bomb          No Hair   
##  2 Abe Sapien      No Hair   
##  3 Abin Sur        No Hair   
##  4 Beta Ray Bill   No Hair   
##  5 Bishop          No Hair   
##  6 Black Lightning No Hair   
##  7 Blaquesmith     No Hair   
##  8 Bloodhawk       No Hair   
##  9 Crimson Dynamo  No Hair   
## 10 Donatello       No Hair   
## # … with 27 more rows
```


```r
bad_guys %>% 
  select(name, hair_color) %>% 
  filter(hair_color == "No Hair")
```

```
## # A tibble: 35 × 2
##    name          hair_color
##    <chr>         <chr>     
##  1 Abomination   No Hair   
##  2 Absorbing Man No Hair   
##  3 Alien         No Hair   
##  4 Annihilus     No Hair   
##  5 Anti-Monitor  No Hair   
##  6 Black Manta   No Hair   
##  7 Bloodwraith   No Hair   
##  8 Brainiac      No Hair   
##  9 Darkseid      No Hair   
## 10 Darth Vader   No Hair   
## # … with 25 more rows
```
…
## Height to Weight Ratio
13. It's easy to be strong when you are heavy and tall, but who is heavy and short? Which superheros have the highest height to weight ratio?

```r
superhero_info %>% 
  select(name, height, weight) %>% 
  mutate(heightweight_ratio = height/weight) %>% 
  arrange(desc(heightweight_ratio))
```

```
## # A tibble: 734 × 4
##    name            height weight heightweight_ratio
##    <chr>            <dbl>  <dbl>              <dbl>
##  1 Groot              701      4             175.  
##  2 Galactus           876     16              54.8 
##  3 Fin Fang Foom      975     18              54.2 
##  4 Longshot           188     36               5.22
##  5 Jack-Jack           71     14               5.07
##  6 Rocket Raccoon     122     25               4.88
##  7 Dash               122     27               4.52
##  8 Howard the Duck     79     18               4.39
##  9 Swarm              196     47               4.17
## 10 Yoda                66     17               3.88
## # … with 724 more rows
```
…
14. How many superheros have a combination of accelerated healing, durability, and super strength?

```r
superhero_powers %>% 
  select(hero_names, accelerated_healing, durability, super_strength) %>% 
  filter(accelerated_healing == "TRUE", durability == "TRUE", super_strength == "TRUE")
```

```
## # A tibble: 97 × 4
##    hero_names   accelerated_healing durability super_strength
##    <chr>        <lgl>               <lgl>      <lgl>         
##  1 A-Bomb       TRUE                TRUE       TRUE          
##  2 Abe Sapien   TRUE                TRUE       TRUE          
##  3 Angel        TRUE                TRUE       TRUE          
##  4 Anti-Monitor TRUE                TRUE       TRUE          
##  5 Anti-Venom   TRUE                TRUE       TRUE          
##  6 Aquaman      TRUE                TRUE       TRUE          
##  7 Arachne      TRUE                TRUE       TRUE          
##  8 Archangel    TRUE                TRUE       TRUE          
##  9 Ardina       TRUE                TRUE       TRUE          
## 10 Ares         TRUE                TRUE       TRUE          
## # … with 87 more rows
```
…
