…
## Load the tidyverse

```r
library(tidyverse)
```

## Mammals Sleep
1. For this assignment, we are going to use built-in data on mammal sleep patterns. From which publication are these data taken from? Since the data are built-in you can use the help function in R.

```r
msleep
```

```
## # A tibble: 83 × 11
##    name         genus vore  order conse…¹ sleep…² sleep…³ sleep…⁴ awake  brainwt
##    <chr>        <chr> <chr> <chr> <chr>     <dbl>   <dbl>   <dbl> <dbl>    <dbl>
##  1 Cheetah      Acin… carni Carn… lc         12.1    NA    NA      11.9 NA      
##  2 Owl monkey   Aotus omni  Prim… <NA>       17       1.8  NA       7    0.0155 
##  3 Mountain be… Aplo… herbi Rode… nt         14.4     2.4  NA       9.6 NA      
##  4 Greater sho… Blar… omni  Sori… lc         14.9     2.3   0.133   9.1  0.00029
##  5 Cow          Bos   herbi Arti… domest…     4       0.7   0.667  20    0.423  
##  6 Three-toed … Brad… herbi Pilo… <NA>       14.4     2.2   0.767   9.6 NA      
##  7 Northern fu… Call… carni Carn… vu          8.7     1.4   0.383  15.3 NA      
##  8 Vesper mouse Calo… <NA>  Rode… <NA>        7      NA    NA      17   NA      
##  9 Dog          Canis carni Carn… domest…    10.1     2.9   0.333  13.9  0.07   
## 10 Roe deer     Capr… herbi Arti… lc          3      NA    NA      21    0.0982 
## # … with 73 more rows, 1 more variable: bodywt <dbl>, and abbreviated variable
## #   names ¹​conservation, ²​sleep_total, ³​sleep_rem, ⁴​sleep_cycle
```
…
